digraph graphname {
    size="24,10";
    rankdir="LR";
    splines=ortho;
    graph [fontname = "sans"];
    node [fontname = "sans", style=filled];
    edge [fontname = "sans", color=gray50];
    a[label="Data", shape=folder, color=grey82, fillcolor=grey93];
    b[label="Report", shape=folder, color=grey82, fillcolor=grey93];
    c[label="Analyze", shape=diamond, color=grey82, fillcolor=grey93];
    d[label="Evaluate", shape=octagon, color=grey82, fillcolor=grey93];
    e[label="Plot", shape=folder, color=grey82, fillcolor=grey93];
    subgraph cluster1 {
        a -> b ;
        label = "e.g. LabbookDB";
        fontcolor = dodgerblue4;
        color = dodgerblue3;
    }
    subgraph cluster2 {
        c -> e;
        d -> c;
        label = "BehavioPy";
        fontcolor = chartreuse3;
        color = chartreuse2;
    }
        b -> d[constraint=false];
        b:e -> c:s;
        b:e -> e:s;
}
