digraph graphname {
    graph [fontname = "sans"];
    node [fontname = "sans", style=filled];
    edge [fontname = "sans", color=gray50];
    size="14,4";
    rankdir="LR";
    a[label="Data", shape=folder, color=darkgreen, fillcolor=grey93];
    b[label="Report", shape=folder, color=yellow4, fillcolor=grey93];
    c[label="Analyze", shape=octagon, color=sienna3, fillcolor=grey93];
    d[label="Evaluate", shape=octagon, color=slateblue3, fillcolor=grey93];
    e[label="Plot", shape=folder, color=navy, fillcolor=grey93];
    f[label="Reformat", color=skyblue4, fillcolor=grey93];
    g[label="Tweak", color=firebrick4, fillcolor=grey93];
    a -> f -> b;
    e -> g;
    c -> f -> e;
    b -> d;
    d -> f;
    b -> c;
    g -> e;
}
